  827  git clone git@gitlab.com:ZirkonCZ/dev-academy-ios-2.git
  828  ls
  829  cd dev-academy-ios-2/
  830  git status
  831  ls
  832  code . &
  833  git status
  834  git switch main
  835  git status
  836  git diff
  837  git switch -c "update-docs"
  838  git commit -m "Add new team member"
  839  git config --local user.email "xnosal1@fi.muni.cz"
  840  git config --global user.name "Michal Nosal"
  841  git config --local user.name "Michal Nosal"
  842  git add README.md 
  843  git commit -m "Add new team member"
  844  git push -u origin HEADF
  845  git push -u origin HEAD
  846  history
